{
    "/css/index.css": "/css/index.css?id=f612ecff5c49ff771a46",
    "/css/settings.css": "/css/settings.css?id=ca8ce0dfc8536a88e8b5",
    "/css/payment.css": "/css/payment.css?id=f329027b768689d7c5f0",
    "/css/news.css": "/css/news.css?id=a1c3f8beaefbaebf4ff2",
    "/css/registration.css": "/css/registration.css?id=2ae58626fc317d7766d1",
    "/css/slide.create.css": "/css/slide.create.css?id=e6a0763a4d4417061777",
    "/css/enableTwoFactor.css": "/css/enableTwoFactor.css?id=d58a5f774e42c57df5af",
    "/css/validateTwoFactor.css": "/css/validateTwoFactor.css?id=039e7387c591c86c5f0b",
    "/css/post-create.css": "/css/post-create.css?id=b4d83fe5b2a348cbe56e",
    "/css/events.css": "/css/events.css?id=843f5927b89610469303",
    "/css/documents.css": "/css/documents.css?id=86e3a86969f46a83239b",
    "/css/create.css": "/css/create.css?id=f5aa9b7f4768b5ece206",
    "/css/modules/auth.css": "/css/modules/auth.css?id=d9e62fe7b0e5b98d4c6b",
    "/css/modules/user.css": "/css/modules/user.css?id=2802aa435e7c0b39b77e",
    "/css/modules/warning.css": "/css/modules/warning.css?id=566df3e750ed7135dfeb",
    "/css/modules/slider.css": "/css/modules/slider.css?id=4c0da31b26172db37349",
    "/css/modules/dropdown.css": "/css/modules/dropdown.css?id=106e34b989731593ba72",
    "/css/modules/pagination.css": "/css/modules/pagination.css?id=018b7775b0796c101d40",
    "/js/slider.js": "/js/slider.js?id=066a49a3b051239a7fb3",
    "/js/validator.js": "/js/validator.js?id=c46115cb6387c0f49d18",
    "/js/server.online.js": "/js/server.online.js?id=5352a47ceeea57442392",
    "/js/admin-slide-create.js": "/js/admin-slide-create.js?id=14f7e69e71addb3e551a",
    "/js/jquery.inputmask.js": "/js/jquery.inputmask.js?id=612fb2db464e73a7ca48"
}
